…
### Wide format to long format

``` r
pulse_tidy_df = 
  pivot_longer(
    pulse_data, 
    bdi_score_bl:bdi_score_12m,
    names_to = "visit", 
    names_prefix = "bdi_score",
    values_to = "bdi")
pulse_tidy_df
```

    ## # A tibble: 4,348 × 5
    ##       id   age sex   visit   bdi
    ##    <dbl> <dbl> <chr> <chr> <dbl>
    ##  1 10003  48.0 male  _bl       7
    ##  2 10003  48.0 male  _01m      1
    ##  3 10003  48.0 male  _06m      2
    ##  4 10003  48.0 male  _12m      0
    ##  5 10015  72.5 male  _bl       6
    ##  6 10015  72.5 male  _01m     NA
    ##  7 10015  72.5 male  _06m     NA
    ##  8 10015  72.5 male  _12m     NA
    ##  9 10022  58.5 male  _bl      14
    ## 10 10022  58.5 male  _01m      3
    ## # ℹ 4,338 more rows
…
  read_csv(
    "./data_import_examples/FAS_pups.csv",
    na = c("NA", "", "."), show_col_types = FALSE) |>
  janitor::clean_names() |>
  mutate(
    sex = 
      case_match(
        sex, 
        1 ~ "male", 
        2 ~ "female"),
    sex = as.factor(sex)) 
pup_df
```

    ## # A tibble: 313 × 6
    ##    litter_number sex   pd_ears pd_eyes pd_pivot pd_walk
    ##    <chr>         <fct>   <dbl>   <dbl>    <dbl>   <dbl>
    ##  1 #85           male        4      13        7      11
    ##  2 #85           male        4      13        7      12
    ##  3 #1/2/95/2     male        5      13        7       9
    ##  4 #1/2/95/2     male        5      13        8      10
    ##  5 #5/5/3/83/3-3 male        5      13        8      10
    ##  6 #5/5/3/83/3-3 male        5      14        6       9
    ##  7 #5/4/2/95/2   male       NA      14        5       9
    ##  8 #4/2/95/3-3   male        4      13        6       8
    ##  9 #4/2/95/3-3   male        4      13        7       9
    ## 10 #2/2/95/3-2   male        4      NA        8      10
    ## # ℹ 303 more rows
``` r
litter_df = 
  read_csv(
    "./data_import_examples/FAS_litters.csv",
    na = c("NA", ".", ""),  show_col_types = FALSE) |>
  janitor::clean_names() |>
  separate(group, into = c("dose", "day_of_tx"), sep = 3) |>
  relocate(litter_number) |>
  mutate(
    wt_gain = gd18_weight - gd0_weight,
    dose = str_to_lower(dose))
litter_df
```

    ## # A tibble: 49 × 10
    ##    litter_number   dose  day_of_tx gd0_weight gd18_weight gd_of_birth
    ##    <chr>           <chr> <chr>          <dbl>       <dbl>       <dbl>
    ##  1 #85             con   7               19.7        34.7          20
    ##  2 #1/2/95/2       con   7               27          42            19
    ##  3 #5/5/3/83/3-3   con   7               26          41.4          19
    ##  4 #5/4/2/95/2     con   7               28.5        44.1          19
    ##  5 #4/2/95/3-3     con   7               NA          NA            20
    ##  6 #2/2/95/3-2     con   7               NA          NA            20
    ##  7 #1/5/3/83/3-3/2 con   7               NA          NA            20
    ##  8 #3/83/3-3       con   8               NA          NA            20
    ##  9 #2/95/3         con   8               NA          NA            20
    ## 10 #3/5/2/2/95     con   8               28.5        NA            20
    ## # ℹ 39 more rows
    ## # ℹ 4 more variables: pups_born_alive <dbl>, pups_dead_birth <dbl>,
    ## #   pups_survive <dbl>, wt_gain <dbl>

``` r
fas_df = 
  left_join(pup_df, litter_df, by = "litter_number") %>% 
  arrange(litter_number) %>% 
  relocate(litter_number, dose, day_of_tx)
fas_df
```

    ## # A tibble: 313 × 15
    ##    litter_number   dose  day_of_tx sex    pd_ears pd_eyes pd_pivot pd_walk
    ##    <chr>           <chr> <chr>     <fct>    <dbl>   <dbl>    <dbl>   <dbl>
    ##  1 #1/2/95/2       con   7         male         5      13        7       9
    ##  2 #1/2/95/2       con   7         male         5      13        8      10
    ##  3 #1/2/95/2       con   7         female       4      13        7       9
    ##  4 #1/2/95/2       con   7         female       4      13        7      10
    ##  5 #1/2/95/2       con   7         female       5      13        8      10
    ##  6 #1/2/95/2       con   7         female       5      13        8      10
    ##  7 #1/2/95/2       con   7         female       5      13        6      10
    ##  8 #1/5/3/83/3-3/2 con   7         male         4      NA       NA       9
    ##  9 #1/5/3/83/3-3/2 con   7         male         4      NA        7       9
    ## 10 #1/5/3/83/3-3/2 con   7         male         4      NA        7       9
    ## # ℹ 303 more rows
    ## # ℹ 7 more variables: gd0_weight <dbl>, gd18_weight <dbl>, gd_of_birth <dbl>,
    ## #   pups_born_alive <dbl>, pups_dead_birth <dbl>, pups_survive <dbl>,
    ## #   wt_gain <dbl>
