…
``` r
litters_df = janitor::clean_names(litters_df)
```

## Select

Choose some columns and not others

``` r
select(litters_df, group, gd0_weight) #this selects the groups you want to keep and shows those
```

    ## # A tibble: 49 × 2
    ##    group gd0_weight
    ##    <chr> <chr>     
    ##  1 Con7  19.7      
    ##  2 Con7  27        
    ##  3 Con7  26        
    ##  4 Con7  28.5      
    ##  5 Con7  <NA>      
    ##  6 Con7  <NA>      
    ##  7 Con7  <NA>      
    ##  8 Con8  <NA>      
    ##  9 Con8  <NA>      
    ## 10 Con8  28.5      
    ## # ℹ 39 more rows

``` r
select(litters_df, group, gd0_weight:gd_of_birth) #this outputs columns between weight and birth
```

    ## # A tibble: 49 × 4
    ##    group gd0_weight gd18_weight gd_of_birth
    ##    <chr> <chr>      <chr>             <dbl>
    ##  1 Con7  19.7       34.7                 20
    ##  2 Con7  27         42                   19
    ##  3 Con7  26         41.4                 19
    ##  4 Con7  28.5       44.1                 19
    ##  5 Con7  <NA>       <NA>                 20
    ##  6 Con7  <NA>       <NA>                 20
    ##  7 Con7  <NA>       <NA>                 20
    ##  8 Con8  <NA>       <NA>                 20
    ##  9 Con8  <NA>       <NA>                 20
    ## 10 Con8  28.5       <NA>                 20
    ## # ℹ 39 more rows

``` r
select(litters_df, -litter_number) #will keep everything except litter number
```

    ## # A tibble: 49 × 7
    ##    group gd0_weight gd18_weight gd_of_birth pups_born_alive pups_dead_birth
    ##    <chr> <chr>      <chr>             <dbl>           <dbl>           <dbl>
    ##  1 Con7  19.7       34.7                 20               3               4
    ##  2 Con7  27         42                   19               8               0
    ##  3 Con7  26         41.4                 19               6               0
    ##  4 Con7  28.5       44.1                 19               5               1
    ##  5 Con7  <NA>       <NA>                 20               6               0
    ##  6 Con7  <NA>       <NA>                 20               6               0
    ##  7 Con7  <NA>       <NA>                 20               9               0
    ##  8 Con8  <NA>       <NA>                 20               9               1
    ##  9 Con8  <NA>       <NA>                 20               8               0
    ## 10 Con8  28.5       <NA>                 20               8               0
    ## # ℹ 39 more rows
    ## # ℹ 1 more variable: pups_survive <dbl>

## Renaming Columns…

``` r
select(litters_df, Group = group, Litternumber = litter_number)
```

    ## # A tibble: 49 × 2
    ##    Group Litternumber   
    ##    <chr> <chr>          
    ##  1 Con7  #85            
    ##  2 Con7  #1/2/95/2      
    ##  3 Con7  #5/5/3/83/3-3  
    ##  4 Con7  #5/4/2/95/2    
    ##  5 Con7  #4/2/95/3-3    
    ##  6 Con7  #2/2/95/3-2    
    ##  7 Con7  #1/5/3/83/3-3/2
    ##  8 Con8  #3/83/3-3      
    ##  9 Con8  #2/95/3        
    ## 10 Con8  #3/5/2/2/95    
    ## # ℹ 39 more rows

``` r
rename(litters_df, Group = group, Litternumber = litter_number) #renames without deleting columns
```

    ## # A tibble: 49 × 8
    ##    Group Litternumber    gd0_weight gd18_weight gd_of_birth pups_born_alive
    ##    <chr> <chr>           <chr>      <chr>             <dbl>           <dbl>
    ##  1 Con7  #85             19.7       34.7                 20               3
    ##  2 Con7  #1/2/95/2       27         42                   19               8
    ##  3 Con7  #5/5/3/83/3-3   26         41.4                 19               6
    ##  4 Con7  #5/4/2/95/2     28.5       44.1                 19               5
    ##  5 Con7  #4/2/95/3-3     <NA>       <NA>                 20               6
    ##  6 Con7  #2/2/95/3-2     <NA>       <NA>                 20               6
    ##  7 Con7  #1/5/3/83/3-3/2 <NA>       <NA>                 20               9
    ##  8 Con8  #3/83/3-3       <NA>       <NA>                 20               9
    ##  9 Con8  #2/95/3         <NA>       <NA>                 20               8
    ## 10 Con8  #3/5/2/2/95     28.5       <NA>                 20               8
    ## # ℹ 39 more rows
    ## # ℹ 2 more variables: pups_dead_birth <dbl>, pups_survive <dbl>

## Select Helpers

``` r
select(litters_df, starts_with("gd")) ## gives everything that starts with gd
```

    ## # A tibble: 49 × 3
    ##    gd0_weight gd18_weight gd_of_birth
    ##    <chr>      <chr>             <dbl>
    ##  1 19.7       34.7                 20
    ##  2 27         42                   19
    ##  3 26         41.4                 19
    ##  4 28.5       44.1                 19
    ##  5 <NA>       <NA>                 20
    ##  6 <NA>       <NA>                 20
    ##  7 <NA>       <NA>                 20
    ##  8 <NA>       <NA>                 20
    ##  9 <NA>       <NA>                 20
    ## 10 28.5       <NA>                 20
    ## # ℹ 39 more rows

``` r
relocate(litters_df, litter_number)
```

    ## # A tibble: 49 × 8
    ##    litter_number   group gd0_weight gd18_weight gd_of_birth pups_born_alive
    ##    <chr>           <chr> <chr>      <chr>             <dbl>           <dbl>
    ##  1 #85             Con7  19.7       34.7                 20               3
    ##  2 #1/2/95/2       Con7  27         42                   19               8
    ##  3 #5/5/3/83/3-3   Con7  26         41.4                 19               6
    ##  4 #5/4/2/95/2     Con7  28.5       44.1                 19               5
    ##  5 #4/2/95/3-3     Con7  <NA>       <NA>                 20               6
    ##  6 #2/2/95/3-2     Con7  <NA>       <NA>                 20               6
    ##  7 #1/5/3/83/3-3/2 Con7  <NA>       <NA>                 20               9
    ##  8 #3/83/3-3       Con8  <NA>       <NA>                 20               9
    ##  9 #2/95/3         Con8  <NA>       <NA>                 20               8
    ## 10 #3/5/2/2/95     Con8  28.5       <NA>                 20               8
    ## # ℹ 39 more rows
    ## # ℹ 2 more variables: pups_dead_birth <dbl>, pups_survive <dbl>
…
``` r
filter(litters_df, gd0_weight >= 22)
```

    ## # A tibble: 26 × 8
    ##    group litter_number gd0_weight gd18_weight gd_of_birth pups_born_alive
    ##    <chr> <chr>         <chr>      <chr>             <dbl>           <dbl>
    ##  1 Con7  #1/2/95/2     27         42                   19               8
    ##  2 Con7  #5/5/3/83/3-3 26         41.4                 19               6
    ##  3 Con7  #5/4/2/95/2   28.5       44.1                 19               5
    ##  4 Con8  #3/5/2/2/95   28.5       <NA>                 20               8
    ##  5 Con8  #5/4/3/83/3   28         <NA>                 19               9
    ##  6 Mod7  #3/82/3-2     28         45.9                 20               5
    ##  7 Mod7  #4/2/95/2     23.5       <NA>                 19               9
    ##  8 Mod7  #5/3/83/5-2   22.6       37                   19               5
    ##  9 Mod7  #94/2         24.4       42.9                 19               7
    ## 10 Low7  #84/2         24.3       40.8                 20               8
    ## # ℹ 16 more rows
    ## # ℹ 2 more variables: pups_dead_birth <dbl>, pups_survive <dbl>

``` r
filter(litters_df, gd_of_birth == 20) #two equal signs is a test for equality
```

    ## # A tibble: 32 × 8
    ##    group litter_number   gd0_weight gd18_weight gd_of_birth pups_born_alive
    ##    <chr> <chr>           <chr>      <chr>             <dbl>           <dbl>
    ##  1 Con7  #85             19.7       34.7                 20               3
    ##  2 Con7  #4/2/95/3-3     <NA>       <NA>                 20               6
    ##  3 Con7  #2/2/95/3-2     <NA>       <NA>                 20               6
    ##  4 Con7  #1/5/3/83/3-3/2 <NA>       <NA>                 20               9
    ##  5 Con8  #3/83/3-3       <NA>       <NA>                 20               9
    ##  6 Con8  #2/95/3         <NA>       <NA>                 20               8
    ##  7 Con8  #3/5/2/2/95     28.5       <NA>                 20               8
    ##  8 Con8  #1/6/2/2/95-2   <NA>       <NA>                 20               7
    ##  9 Con8  #3/5/3/83/3-3-2 <NA>       <NA>                 20               8
    ## 10 Con8  #3/6/2/2/95-3   <NA>       <NA>                 20               7
    ## # ℹ 22 more rows
    ## # ℹ 2 more variables: pups_dead_birth <dbl>, pups_survive <dbl>
…
